{
    "count": 40,
    "next": "https://dev.bjywkd.com/copyright/settlement/order?end_time=2019-03-31&page=2&place_name=test&start_time=2019-03-01",
    "previous": null,
    "results": [
        {
            "id": 63,
            "status_des": "已支付",
            "platform_des": "微信",
            "status_update_time": "2019-03-26 11:26:46",
            "order_id": "PAY19032615535705553864",
            "place_name": "test",
            "transaction_id": "4200000303201903269384294630",
            "pay_time": "2019-03-26 11:26:45",
            "recharge_fee": 0.01,
            "package_name": "充500送200",
            "recharge_status": "待到账",
            "create_date": "2019-03-26 11:22:35",
            "update_date": "2019-03-26 11:26:46"
        },
        {
            "id": 61,
            "status_des": "已支付",
            "platform_des": "支付宝",
            "status_update_time": "2019-03-26 09:49:43",
            "order_id": null,
            "place_name": "test",
            "transaction_id": "2019032622001440810549316995",
            "pay_time": "2019-03-26 09:49:43",
            "recharge_fee": 0,
            "package_name": "充500送200",
            "recharge_status": "待到账",
            "create_date": "2019-03-26 09:49:18",
            "update_date": "2019-03-26 09:49:43"
        },
        {
            "id": 59,
            "status_des": "已支付",
            "platform_des": "微信",
            "status_update_time": "2019-03-26 09:49:06",
            "order_id": null,
            "place_name": "test",
            "transaction_id": "4200000296201903264592161929",
            "pay_time": "2019-03-26 09:49:05",
            "recharge_fee": 0.01,
            "package_name": "充500送200",
            "recharge_status": "待到账",
            "create_date": "2019-03-26 09:48:18",
            "update_date": "2019-03-26 09:49:06"
        },
        {
            "id": 58,
            "status_des": "已支付",
            "platform_des": "微信",
            "status_update_time": "2019-03-26 09:11:00",
            "order_id": null,
            "place_name": "test",
            "transaction_id": "4200000289201903269977950480",
            "pay_time": "2019-03-26 09:10:59",
            "recharge_fee": 0.01,
            "package_name": "充500送200",
            "recharge_status": "待到账",
            "create_date": "2019-03-26 09:10:18",
            "update_date": "2019-03-26 09:11:00"
        },
		{
		    "id": 63,
		    "status_des": "已支付",
		    "platform_des": "微信",
		    "status_update_time": "2019-03-26 11:26:46",
		    "order_id": "PAY19032615535705553864",
		    "place_name": "test",
		    "transaction_id": "4200000303201903269384294630",
		    "pay_time": "2019-03-26 11:26:45",
		    "recharge_fee": 0.01,
		    "package_name": "充500送200",
		    "recharge_status": "待到账",
		    "create_date": "2019-03-26 11:22:35",
		    "update_date": "2019-03-26 11:26:46"
		},
		{
		    "id": 61,
		    "status_des": "已支付",
		    "platform_des": "支付宝",
		    "status_update_time": "2019-03-26 09:49:43",
		    "order_id": null,
		    "place_name": "test",
		    "transaction_id": "2019032622001440810549316995",
		    "pay_time": "2019-03-26 09:49:43",
		    "recharge_fee": 0,
		    "package_name": "充500送200",
		    "recharge_status": "待到账",
		    "create_date": "2019-03-26 09:49:18",
		    "update_date": "2019-03-26 09:49:43"
		},
		{
		    "id": 59,
		    "status_des": "已支付",
		    "platform_des": "微信",
		    "status_update_time": "2019-03-26 09:49:06",
		    "order_id": null,
		    "place_name": "test",
		    "transaction_id": "4200000296201903264592161929",
		    "pay_time": "2019-03-26 09:49:05",
		    "recharge_fee": 0.01,
		    "package_name": "充500送200",
		    "recharge_status": "待到账",
		    "create_date": "2019-03-26 09:48:18",
		    "update_date": "2019-03-26 09:49:06"
		},
		{
		    "id": 58,
		    "status_des": "已支付",
		    "platform_des": "微信",
		    "status_update_time": "2019-03-26 09:11:00",
		    "order_id": null,
		    "place_name": "test",
		    "transaction_id": "4200000289201903269977950480",
		    "pay_time": "2019-03-26 09:10:59",
		    "recharge_fee": 0.01,
		    "package_name": "充500送200",
		    "recharge_status": "待到账",
		    "create_date": "2019-03-26 09:10:18",
		    "update_date": "2019-03-26 09:11:00"
		},
		{
		    "id": 63,
		    "status_des": "已支付",
		    "platform_des": "微信",
		    "status_update_time": "2019-03-26 11:26:46",
		    "order_id": "PAY19032615535705553864",
		    "place_name": "test",
		    "transaction_id": "4200000303201903269384294630",
		    "pay_time": "2019-03-26 11:26:45",
		    "recharge_fee": 0.01,
		    "package_name": "充500送200",
		    "recharge_status": "待到账",
		    "create_date": "2019-03-26 11:22:35",
		    "update_date": "2019-03-26 11:26:46"
		},
		{
		    "id": 61,
		    "status_des": "已支付",
		    "platform_des": "支付宝",
		    "status_update_time": "2019-03-26 09:49:43",
		    "order_id": null,
		    "place_name": "test",
		    "transaction_id": "2019032622001440810549316995",
		    "pay_time": "2019-03-26 09:49:43",
		    "recharge_fee": 0,
		    "package_name": "充500送200",
		    "recharge_status": "待到账",
		    "create_date": "2019-03-26 09:49:18",
		    "update_date": "2019-03-26 09:49:43"
		},
		{
		    "id": 59,
		    "status_des": "已支付",
		    "platform_des": "微信",
		    "status_update_time": "2019-03-26 09:49:06",
		    "order_id": null,
		    "place_name": "test",
		    "transaction_id": "4200000296201903264592161929",
		    "pay_time": "2019-03-26 09:49:05",
		    "recharge_fee": 0.01,
		    "package_name": "充500送200",
		    "recharge_status": "待到账",
		    "create_date": "2019-03-26 09:48:18",
		    "update_date": "2019-03-26 09:49:06"
		},
		{
		    "id": 58,
		    "status_des": "已支付",
		    "platform_des": "微信",
		    "status_update_time": "2019-03-26 09:11:00",
		    "order_id": null,
		    "place_name": "test",
		    "transaction_id": "4200000289201903269977950480",
		    "pay_time": "2019-03-26 09:10:59",
		    "recharge_fee": 0.01,
		    "package_name": "充500送200",
		    "recharge_status": "待到账",
		    "create_date": "2019-03-26 09:10:18",
		    "update_date": "2019-03-26 09:11:00"
		}
]
}